﻿{
	"cuisineData": [
		{
			"name": "test_cuisine_1",
			"arrayNum": 99,
			"flavor": "anyColor",
			"rarity": "string",
			"materialList": [
				{
					"materialName": "test_material_1",
					"materialAN": 99
				},
				{
					"materialName": "test_material_2",
					"materialAN": 99
				}
			],
			"successList": [
				{
					"level": 0,
					"stamina": 0,
					"texture": "string",
					"copperPrice": 0,
					"crystalPrice": 0
				},
				{
					"level": 1,
					"stamina": 99,
					"texture": "string",
					"copperPrice": 9999,
					"crystalPrice": 99
				},
				{
					"level": 2,
					"stamina": 99,
					"texture": "string",
					"copperPrice": 9999,
					"crystalPrice": 99
				},
				{
					"level": 3,
					"stamina": 99,
					"texture": "string",
					"copperPrice": 9999,
					"crystalPrice": 99
				}
			]
		}
	]
}