﻿{
  "opponentName": "test_opponent_1",
  "opponentAN": 0,
  "competitive": false,
  "targetScore": 1000,
  "flavorRequired": "anyColor",
  "randomEventInterval": 30,
  "randomEventList": [
    {
      "spellName": "remove_pieces",
      "spellAN": 0,
      "spellChance": 99
    },
    {
      "spellName": "add_blocks",
      "spellAN": 1,
      "spellChance": 99
    }
  ],
  "rewardData": {
    "rewardList": [
      {
        "foodName": "test_material_1",
        "foodAN": 0,
        "foodChance": 50,
        "quantityBase": 1,
        "quantityRandom": 3
      },
      {
        "foodName": "test_material_2",
        "foodAN": 1,
        "foodChance": 50,
        "quantityBase": 1,
        "quantityRandom": 3
      }
    ]
  },
  "levelMapData": {
    "positionedElements": [
      {
        "name": "element0",
        "elementType": "random",
        "boostType": "random",
        "posList": [
          {
            "xPos": 1,
            "yPos": 5,
            "color": "random",
            "layer": 9
          },
          {
            "xPos": 5,
            "yPos": 1,
            "color": "random",
            "layer": 9
          },
          {
            "xPos": 3,
            "yPos": 3,
            "color": "random",
            "layer": 9
          }
        ]
      }
    ],
    "randomElements": [
      {
        "name": "boosts",
        "elementType": "piece",
        "quantity": 5,
        "color": "random",
        "boostType": "random",
        "layers": 9
      },
      {
        "name": "blocks",
        "elementType": "block",
        "quantity": 5,
        "color": "random",
        "boostType": "random",
        "layers": 1
      }
    ]
  }
}