﻿{
  "spellData": [
    {
      "name": "remove_pieces",
      "arrayNum": 0,
      "flavor": "red",
      "energyRequire": 30,
      "effects": [
        {
          "target": "enemy",
          "action": "remove",
          "type": "piece",
          "color": "random",
          "number": 5
        }
      ]
    },
    {
      "name": "add_blocks",
      "arrayNum": 1,
      "flavor": "blue",
      "energyRequire": 40,
      "effects": [
        {
          "target": "enemy",
          "action": "add",
          "type": "hostileObj",
          "object": "block",
          "number": 3,
          "layer": 3
        }
      ]
    }
  ]
}